\relax 
\citation{light_effect}
\citation{ils}
\citation{ils_other,localization,gairan}
\citation{sync1,sync2,rbs,ftsp}
\citation{tplc}
\citation{ils}
\citation{project}
\citation{JIS:ideal_ill,fifty}
\citation{ils_other,localization,gairan}
\citation{anarc}
\citation{anadb}
\citation{influence}
\newlabel{ils_const}{{1}{2}}
\citation{tplc}
\citation{invisible_light}
\newlabel{function1}{{1}{3}}
\citation{ftsp}
\citation{mote}
\citation{napica}
\citation{desk}
\newlabel{bit_wave}{{2}{4}}
\newlabel{eq:correlation}{{2}{4}}
\newlabel{KC111}{{3}{4}}
\newlabel{real_KC111}{{4}{4}}
\citation{sync1}
\citation{sync1,sync2}
\citation{rbs,ftsp}
\newlabel{ils_ill}{{5}{5}}
\newlabel{tab:TP_FP}{{1}{5}}
\newlabel{tab:result}{{2}{5}}
\citation{rbs}
\citation{ftsp}
\bibcite{light_effect}{1}
\bibcite{ils}{2}
\bibcite{ils_other}{3}
\bibcite{localization}{4}
\bibcite{gairan}{5}
\bibcite{sync1}{6}
\bibcite{sync2}{7}
\bibcite{rbs}{8}
\bibcite{ftsp}{9}
\bibcite{tplc}{10}
\bibcite{project}{11}
\bibcite{JIS:ideal_ill}{12}
\bibcite{fifty}{13}
\bibcite{anarc}{14}
\bibcite{anadb}{15}
\bibcite{influence}{16}
\bibcite{invisible_light}{17}
\bibcite{mote}{18}
\bibcite{napica}{19}
\bibcite{desk}{20}
